<?xml version="1.0" encoding="utf-8"?>
<!-- Generator: Adobe Illustrator 16.0.0, SVG Export Plug-In . SVG Version: 6.00 Build 0)  -->
<!DOCTYPE svg PUBLIC "-//W3C//DTD SVG 1.1//EN" "http://www.w3.org/Graphics/SVG/1.1/DTD/svg11.dtd">
<svg version="1.1" xmlns="http://www.w3.org/2000/svg" xmlns:xlink="http://www.w3.org/1999/xlink" x="0px" y="0px"
	 width="1183.638px" height="803.01px" viewBox="0 0 1183.638 803.01" enable-background="new 0 0 1183.638 803.01"
	 xml:space="preserve">
<g id="Layer_2">
	<path fill="none" stroke="#000000" stroke-miterlimit="10" d="M433.425,279.078c1.601,5.127,9.398,6.042,9.398,6.042
		c-0.671,4.698-4.028,7.384-4.028,7.384c-4.699,1.343-4.699,6.713-4.699,6.713c-4.699-2.015-5.37-16.11-5.37-16.11
		c-3.356,5.37-15.439,10.74-15.439,10.74c7.384-3.356,6.713-11.412,6.713-11.412c-2.014-10.068,4.027-30.207,4.027-30.207
		c6.713-14.097,35.577-14.768,35.577-14.768c6.712-2.014,22.375,10.74,22.375,10.74c4.922,5.37-0.895,25.508-0.895,25.508
		c2.014-2.685,0-8.727,0-8.727c-6.042-4.698-16.11-15.438-16.11-15.438s-4.252,12.753-10.069,15.214c0,0-6.266,7.606,0,11.858
		c0,0-0.447,7.161-4.027,8.279c0,0-4.698-14.768-7.16-13.649c0,0-3.581,6.714-1.791,8.279c0,0-3.804,0.671-4.027-2.686
		c0,0-0.895-4.475-3.356-4.698C434.544,272.141,432.685,276.707,433.425,279.078z"/>
	<path fill="none" stroke="#000000" stroke-width="0.75" stroke-miterlimit="10" d="M476.978,261.467c0,0,0.303,13.358,2.094,17.386
		c0,0,4.922,11.86,0,11.636c0,0-1.183,0.002-2.33-0.463c-0.651-0.263-1.292-0.678-1.698-1.326c0,0-3.803-0.666-3.132,1.792"/>
	<path fill="none" stroke="#000000" stroke-width="0.75" stroke-miterlimit="10" d="M475.043,290.491v4.249c0,0-2.908-2.461-9.173,0
		c0,0,4.699,6.716,8.055,4.477c0,0,1.119-1.343-0.671-2.463c0,0,1.79-0.894,1.79-2.014"/>
	<path fill="none" stroke="#000000" stroke-width="0.75" stroke-miterlimit="10" d="M445.284,293.621
		c0,0,17.677,16.558,23.718,16.11c0,0,3.222-1.422,2.83-5.817c0,0-0.093-3.854,1-4.275"/>
	<path fill="none" stroke="#000000" stroke-width="0.75" stroke-miterlimit="10" d="M465.938,273.172c0,0,2.682,3.229,5.894,2.111
		l3.211-1.656c-4.699-5.146-11.188,1.118-11.188,1.118"/>
	<path d="M472.832,272.024c0,0-2.935-1.748-3.382,1.533c0,0,0.538,2.677,2.382,1.726
		C471.832,275.283,473.978,273.923,472.832,272.024z"/>
	<path fill="none" stroke="#000000" stroke-miterlimit="10" d="M434.363,297.378c0,0,21.605,29.363,28.681,38.983
		c0,0,13.94,15.662,20.913,15.887c0,0,19.279-0.225,32.033,7.159"/>
	<path fill="none" stroke="#000000" stroke-miterlimit="10" d="M416.52,292.267c0,0-8.603,6.059-18.896,9.413
		c0,0-9.398,8.497-14.097,22.597c0,0-17.453,32.447-26.403,93.084"/>
	<path fill="none" stroke="#000000" stroke-miterlimit="10" d="M353.992,426.757c0,0-10.068,42.065,10.964,44.75"/>
	<path fill="none" stroke="#000000" stroke-width="0.5" stroke-miterlimit="10" d="M401.429,313.536c0,0,28.417-5.818,31.997,21.928
		"/>
	<path fill="none" stroke="#000000" stroke-miterlimit="10" d="M418.616,291.138c0,0,23.312,31.303,25.774,37.255
		c0,0,4.475-1.925,6.712,0l-2.48,1.925c0,0,9.405,15.333,9.405,25.749c0,0.895,1.031-0.467,1.031-0.467s4.797-12.528-5.943-31.323
		c-0.702-1.229,0-3.579,0-3.579c6.937-14.769,9.929-13.124,9.929-13.124"/>
	<path fill="none" stroke="#000000" stroke-miterlimit="10" d="M389.569,348.664c0,0,20.362,20.584,33.787,22.375
		c0,0,22.599,13.201,36.696,12.083c0,0,49.225,1.699,53.7,0.066c0,0,4.028-0.291,3.356-5.437c0,0-5.146-11.86-9.621-14.097
		c0,0-0.447-2.686-13.649-2.014c0,0-5.916-0.218-12.58-2.234c0,0-7.783-4.479-19.417-1.569c0,0-2.833,0.673-8.465-5.146
		c0,0-13.911-13.426-21.071-12.083"/>
	<path fill="none" stroke="#000000" stroke-width="0.5" stroke-miterlimit="10" d="M391.135,343.741c0,0,15.439,2.016,24.166-4.475
		c0,0,4.922-3.582,10.964-1.119"/>
	<path fill="none" stroke="#000000" stroke-width="0.5" stroke-miterlimit="10" d="M392.254,340.66c0,0,14.745-10.12,24.266-6.987"
		/>
	<path fill="none" stroke="#000000" stroke-width="0.5" stroke-miterlimit="10" d="M418.616,354.813c0,0,33.828,29.428,41.436,25.4
		c0,0,14.097-12.083,14.992-16.334"/>
	<path fill="none" stroke="#000000" stroke-miterlimit="10" d="M495.628,366.34c0,0-16.786,17.342-25.172,17.096"/>
	<path fill="none" stroke="#000000" stroke-miterlimit="10" d="M439.019,407.961c0,0-11.411,12.979,0,18.796"/>
	<path fill="none" stroke="#000000" stroke-miterlimit="10" d="M344.818,411.316c0,0,6.095-4.252,13.453-4.699"/>
	<path fill="none" stroke="#000000" stroke-miterlimit="10" d="M346.832,416.015c0,0,5.897-4.476,11.228-4.698"/>
	<path fill="none" stroke="#000000" stroke-miterlimit="10" d="M346.832,417.359c0,0-3.581-29.983-7.384-39.829
		c0,0-10.74-41.62-10.74-51.913c0,0-3.355-42.736-27.297-46.093c0,0-25.061-4.699-34.234,0c0,0-2.238,0.894,7.607,7.159
		c0,0,7.608,3.685,10.517,26.344c0,0,13.648,100.974,22.599,106.791"/>
	<path fill="none" stroke="#000000" stroke-miterlimit="10" d="M310.137,429.886c0,0,14.99,40.953,23.941,41.621l72.721,1.34
		c0,0,4.921-0.671,1.901-5.369c0,0-9.287-27.298-16.446-32.893c0,0-4.699-7.377-20.585-7.828l-55.044-1.122
		C316.625,425.635,310.808,425.411,310.137,429.886z"/>
	<path fill="none" stroke="#000000" stroke-miterlimit="10" d="M304.318,427.872c0,0-2.461-10.283,13.649-10.512l61.756,1.337
		c0,0,15.664,2.687,21.705,13.203l15.091,31.325c0,0,5.94,12.979-8.603,15.664l-73.392-0.896c0,0-6.488,0.225-12.306-9.173
		L304.318,427.872z"/>
	<path fill="none" stroke="#000000" stroke-miterlimit="10" d="M310.137,429.886c0,0-4.923-6.488,6.265-7.83l57.281,1.342
		c0,0,18.124,1.343,23.942,13.426c0,0,19.636,31.995,12.056,36.023"/>
	<path fill="none" stroke="#000000" stroke-miterlimit="10" d="M416.52,473.78c0,0,40.176-5.185,36.819,24.575l-133.134,8.503
		c0,0-5.819,1.565-10.069-8.95l-25.283-65.784c0,0-4.475-8.275-4.699-18.458L264.491,309.74l-3.132-18.603
		c0,0-1.319-9.809,5.817-11.613"/>
	<path fill="none" stroke="#000000" stroke-miterlimit="10" d="M264.582,280.762c0,0-0.314,3.682,4.161,6.366
		c0,0,11.859,7.494,12.083,25.899c0,0,16.187,104.933,23.399,112.605"/>
	<path fill="none" stroke="#000000" stroke-miterlimit="10" d="M450.656,447.45c2.014,9.288-9.826,14.878-9.826,14.878
		c-6.47,4.699-22.214,6.042-22.214,6.042s22.198,6.738,34.921,9.52c4.472,0.977,7.774,1.465,8.531,1"/>
	<path fill="none" stroke="#000000" stroke-miterlimit="10" d="M409.68,435.927c0,0,25.981-1.567,29.338,2.461
		c0,0-16.331,21.332-15.661,28.192"/>
	<polyline fill="none" stroke="#000000" stroke-miterlimit="10" points="373.651,503.444 374.579,506.941 388.461,506.482 
		427.608,505.192 427.608,499.999 	"/>
	<path fill="none" stroke="#000000" stroke-miterlimit="10" d="M457.368,574.208l-56.738,0.223l6.841,12.754
		c-5.146,6.713-15.439,2.686-15.439,2.686l-6.712-14.097l-91.292,8.056c-5.37-7.608,4.699-8.949,4.699-8.949l77.643-18.125v-25.508
		c0.224-4.475,2.238-4.027,2.238-4.027h4.027v-11.636h3.133v-3.581h2.461l0.233-5.521"/>
	<path fill="none" stroke="#000000" stroke-miterlimit="10" d="M391.584,506.38v4.952h1.79v3.356h1.119v12.307h4.027
		c0,0,1.981,0.447,2.109,4.028v27.521c0,0,58.752,5.595,61.438,5.595"/>
	<path fill="none" stroke="#000000" stroke-miterlimit="10" d="M296.306,583.628c0,0-5.636-5.613,17.635-8.747
		c0,0,62.651-13.648,64.665-14.097c0,0,3.58-0.003,5.146,3.355c0,0,11.635,20.587,13.425,22.152c0,0,5.53,3.168,8.023-3.339"/>
	<path fill="none" stroke="#000000" stroke-miterlimit="10" d="M400.63,574.431l-4.347-7.158c0,0-1.471-2.015,2.173-2.238
		l63.611,1.343"/>
	<path fill="none" stroke="#000000" stroke-miterlimit="10" d="M324.826,568.787c0,0-2.129-4.263-2.396-7.95
		c-0.159-2.213,0.352-4.221,2.396-4.976l51.543,0.894c0,0,8.47,6.935,24.261,1.79"/>
	<line fill="none" stroke="#000000" stroke-miterlimit="10" x1="322.43" y1="560.837" x2="357.4" y2="560.784"/>
	<path fill="none" stroke="#000000" stroke-miterlimit="10" d="M292.45,601.283v-14.22c0,0,9.409-7.061,14.555,0v14.22
		C307.005,601.283,298.033,605.981,292.45,601.283z"/>
	<path fill="none" stroke="#000000" stroke-miterlimit="10" d="M393.822,591.068c0,0-6.265,6.187,0,16.256h11.379
		c0,0-6.388-8.005-1.5-17.204c0,0,3.937-2.092,5.979,3.528c0,0,3.32,13.676-4.479,13.676"/>
	<path fill="none" stroke="#000000" stroke-miterlimit="10" d="M458.899,478.89c0,0,0.932,35.132,3.168,45.872
		c0,0,4.699,12.753,0,31.1c0,0,40.498,1.792,49.896-4.249c0,0-8.055-87.936-12.754-93.978c0,0-6.747-8.28-13.778-8.503"/>
	<path fill="none" stroke="#000000" stroke-miterlimit="10" d="M464.305,555.941c0,0-1.916,16.479-5.406,19.836
		c0,0-5.236,18.964,0,22.823c0,0,15.305-3.021,20.508,3.691c0,0,38.933,8.056,46.317-3.188c0,0,0-8.224-13.761-9.901
		c0,0-21.312-8.559-21.648-13.594c0,0-22.327,9.257-31.416,0.168"/>
	<path fill="none" stroke="#000000" stroke-miterlimit="10" d="M489.14,556.11c0,0-2.189,17.934-0.759,20.227"/>
	<path fill="none" stroke="#000000" stroke-miterlimit="10" d="M496.328,581.528c0,0,13.621-0.124,14.628,0
		c0,0,2.182-4.765,9.23-0.056l12.586,0.056"/>
	<path fill="none" stroke="#000000" stroke-miterlimit="10" d="M488.421,563.02c0,0,13.976,0.508,16.829-3.521
		c0,0,10.069,8.559,18.795,8.391l8.055,0.003"/>
	<path fill="none" stroke="#000000" stroke-miterlimit="10" d="M501.485,554.642c0,0-0.818,5.28,0.97,6.747"/>
	<polygon fill="none" stroke="#000000" stroke-miterlimit="10" points="532.772,615.718 532.772,447.45 440.342,447.45 
		440.342,385.474 911.366,385.474 911.366,442.196 822.087,442.196 822.087,607.324 813.361,607.324 813.361,435.626 
		903.981,435.626 903.981,393.232 465.87,393.232 448.622,393.232 448.622,435.626 540.156,435.626 540.156,615.718 	"/>
	<polyline fill="none" stroke="#000000" stroke-miterlimit="10" points="465.87,429.441 557.609,429.441 557.609,451.104 
		793.895,451.104 793.895,426.757 879.816,426.757 879.816,393.232 	"/>
	<polyline fill="none" stroke="#000000" stroke-miterlimit="10" points="779.798,451.104 779.798,568.787 813.361,607.324 	"/>
	<polyline fill="none" stroke="#000000" stroke-miterlimit="10" points="567.678,451.104 567.678,573.924 540.156,615.718 	"/>
	<path fill="none" stroke="#000000" stroke-miterlimit="10" d="M509.765,529.214h15.959c0,0,7.048-62.406,0-81.09"/>
	<path fill="none" stroke="#000000" stroke-miterlimit="10" d="M509.28,364.996c0,0,11.633-13.674,17.451-8.625"/>
	<path fill="none" stroke="#000000" stroke-miterlimit="10" d="M535.271,353.072c-3.804-3.804-15.7,9.134-15.7,9.134"/>
	<path fill="none" stroke="#000000" stroke-miterlimit="10" d="M543.11,353.072c-5.146-4.486-13.022,4.035-13.022,4.035
		s-0.448,4.315,4.027,2.3L543.11,353.072z"/>
	<path fill="none" stroke="#000000" stroke-miterlimit="10" d="M543.11,353.072c0,0,1.97,0.171,0.851,4.035l-9.846,7.889
		c0,0-2.355,3.375,1.672,2.706l11.306-7.578c0,0,0.895-3.017-3.133-3.017"/>
	<path fill="none" stroke="#000000" stroke-miterlimit="10" d="M547.094,360.124c0,0,2.435,0.409,2.211,3.099l-7.357,6.924
		c0,0-1.342,2.236,1.79,2.461l5.83-3.579c0,0,2.085-3.458-0.263-5.806"/>
	<path fill="none" stroke="#000000" stroke-miterlimit="10" d="M549.567,369.028c0,0,1.579,1.342,0,2.685l-6.278,5.146
		c0,0-4.487,2.769-7.502,3.733c0,0-15.844,1.496-18.603,0"/>
	<path fill="none" stroke="#000000" stroke-miterlimit="10" d="M545.383,375.143c0,0-1.736,2.612,0.658,2.612
		c0,0,6-3.133,3.526-6.042"/>
	<path fill="none" stroke="#000000" stroke-miterlimit="10" d="M884.515,289.31c-2.014-2.187-4.699-0.498-4.699-0.498
		c-4.363,2.35-4.028-4.363-4.028-4.363c3.356-8.055,0-11.075,0-11.075c-3.021-0.672-2.014-15.439-2.014-15.439
		s13.761-14.433,21.816-7.384c0,0-3.021,10.74,3.356,11.076c0,0,8.391,2.722,9.062,10.591l1.678-0.268c0,0-2.35-5.625,1.678-8.646
		c0,0,6.042-5.706,9.733,1.343c0,0-0.671,17.452-7.72,13.761"/>
	<path fill="none" stroke="#000000" stroke-miterlimit="10" d="M879.816,288.812c0,0,1.678,2.35,1.678,5.035
		c0,0,1.343,2.349,3.021,2.685c0,0,1.342,4.027,3.021,3.692c0,0-1.342,8.391,7.048,4.363c0,0,15.896-6.439,18.581-16.508"/>
	<path fill="none" stroke="#000000" stroke-miterlimit="10" d="M879.064,270.017c0,0,1.423-3.692,5.451-3.356l7.384,1.668"/>
	<path fill="none" stroke="#000000" stroke-miterlimit="10" d="M881.83,273.622c0,0-1.088-3.271,3.651-3.605
		c0,0,4.739,1.256,6.417,1.803c0,0-3.799,0.709-5.088,1.803C886.811,273.622,883.844,274.206,881.83,273.622z"/>
	<ellipse cx="884.577" cy="272.218" rx="0.858" ry="1.544"/>
	<path fill="none" stroke="#000000" stroke-miterlimit="10" d="M875.153,256.598c0,0-1.643-2.691,0-6.048
		c0,0,10.705-16.11,37.891-14.433c0,0,21.145,5.664,22.151,30.521c0,0-2.349,15.125,0,17.475c0,0-5.37-0.336-7.048,7.384
		c0,0-13.761,35.241-16.782,48.666"/>
	<path fill="none" stroke="#000000" stroke-miterlimit="10" d="M898.309,302.279c0,0,7.352,0.965,8.358,6.335
		c0,0,1.342,4.699,3.021,5.706c0,0-3.38,10.74-4.878,16.11c0,0,1.858,12.754,4.878,15.104"/>
	<path fill="none" stroke="#000000" stroke-miterlimit="10" d="M845.582,356.274c26.515-0.336,46.317-18.46,46.317-18.46
		c7.048-3.021,6.41-7.72,6.41-7.72c2.382-11.076,8.358-21.48,8.358-21.48"/>
	<path fill="none" stroke="#000000" stroke-miterlimit="10" d="M961.71,317.676c-10.74-7.384-26.515-3.021-26.515-3.021
		c-8.726,0-21.145,23.159-21.145,23.159c-8.055,11.075-13.09,16.11-13.09,16.11c-2.685-2.686-9.062,2.35-9.062,2.35
		c-3.021-3.021-39.604,2.685-39.604,2.685c-11.412,3.692-8.727,20.81-8.727,20.81h56.051c0,0,7.048,0.671,11.747-3.021
		c0,0,41.283-15.774,45.981-23.158"/>
	<path fill="none" stroke="#000000" stroke-width="0.5" stroke-miterlimit="10" d="M898.309,358.623c0,0,0.028,12.419,4.193,14.769"
		/>
	<path fill="none" stroke="#000000" stroke-width="0.5" stroke-miterlimit="10" d="M891.899,360.973c0,0,1.517,7.384,5.458,11.076"
		/>
	<path fill="none" stroke="#000000" stroke-miterlimit="10" d="M908.36,378.465c0,0,6.698,17.078,8.711,19.092
		c0,0,5.37,7.384,10.069,7.384c0,0,5.034,0,8.055,11.412c0,0,3.692,8.055,12.083,11.747c0,0-14.768-2.35-9.733,8.726
		c0,0,16.782,26.852,29.536,29.2"/>
	<path fill="none" stroke="#000000" stroke-miterlimit="10" d="M913.165,376.049c0,0,2.167,19.773,4.678,22.491"/>
	<path fill="none" stroke="#000000" stroke-miterlimit="10" d="M909.688,314.32c0,0,16.027-20.875,19.108-25.011"/>
	<path fill="none" stroke="#000000" stroke-miterlimit="10" d="M935.195,284.113c0,0,7.048,4.027,14.433,2.014
		c0,0,12.083-0.672,30.542,25.172c0,0,48.331,58.064,50.68,102.032"/>
	<path fill="none" stroke="#000000" stroke-miterlimit="10" d="M976.479,475.424c0,0-14.433-0.336-9.398-15.439l12.754-30.207
		c0,0,12.418-16.446,27.187-14.768l66.791-0.121c0,0,9.062,3.478,7.384,9.519l-20.809,47.324c0,0-1.679,3.356-10.069,3.692H976.479z
		"/>
	<path fill="none" stroke="#000000" stroke-miterlimit="10" d="M974.129,463.341l14.768-30.549c0,0,8.391-10.178,18.796-10.624
		l62.763,0.077c0,0,3.692,1.155,0,9.211l-13.761,30.206c0,0-2.685,7.72-11.747,6.713l-64.777,1.679
		C980.17,470.054,973.122,470.054,974.129,463.341z"/>
	<path fill="none" stroke="#000000" stroke-miterlimit="10" d="M1075.365,415.612c0,0,11.872-42.893,13.886-54.64
		c0,0,10.74-70.818,20.138-76.859c0,0,11.076-9.388,9.398-10.231c0,0-29.2-2.848-35.577,0c0,0-21.145,4.698-25.172,31.798
		c0,0-13.761,71.739-18.46,79.794c0,0-4.7,23.543-2.014,30.139"/>
	<path fill="none" stroke="#000000" stroke-miterlimit="10" d="M1118.787,273.882c0,0,6.377,3.519,4.363,7.882
		c0,0-0.456,0.277-1.213,0.846c-3.4,2.546-12.854,10.908-14.226,26.005c0,0-21.402,100.783-26.308,113.631"/>
	<path fill="none" stroke="#000000" stroke-miterlimit="10" d="M1121.937,282.609c0,0-8.185,69.302-12.883,87.09
		c0,0-5.706,47.324-16.446,72.497l-18.796,52.693c0,0-2.014,10.405-16.446,9.398l-112.772-3.692c0,0-17.082,1.007-13.072-12.418
		c0,0,1.996-14.097,16.092-12.754h28.865"/>
	<path fill="none" stroke="#000000" stroke-miterlimit="10" d="M1034.207,422.245c0,0,6.061,31.026,2.527,37.739
		c0,0-0.545,7.177-7.242,8.791"/>
	<path fill="none" stroke="#000000" stroke-miterlimit="10" d="M935.195,409.976c0,0,5.37-2.35,7.384-4.363
		c0,0,10.74-7.385,17.117-3.692"/>
	<path fill="none" stroke="#000000" stroke-width="0.5" stroke-miterlimit="10" d="M986.547,387.294c0,0,19.466,1.872,25.172,8.92
		c0,0,7.928,8.727,14.704,7.385"/>
	<path fill="none" stroke="#000000" stroke-miterlimit="10" d="M966.015,468.775c0,0-44.694,6.312-50.511,2.956"/>
	<path fill="none" stroke="#000000" stroke-miterlimit="10" d="M911.366,463.341c0,0,6.242,10.404,6.477,19.802
		c0,0,5.45,37.256,7.206,41.619c1.756,4.363,0,1.342,0,1.342s5.963,23.495,0,23.495c0,0-29.793,8.727-41.541,3.691
		c0,0-12.754-82.229-14.768-87.265c0,0-4.363-20.474,0-23.829"/>
	<path fill="none" stroke="#000000" stroke-miterlimit="10" d="M911.366,435.147l25.142-2.355l-10.375-8.385
		c0,0-3.738-3.021,2.662-3.691h9.199"/>
	<line fill="none" stroke="#000000" stroke-miterlimit="10" x1="911.366" y1="426.085" x2="926.133" y2="424.407"/>
	<path fill="none" stroke="#000000" stroke-miterlimit="10" d="M854.308,442.196c0,0-0.335,16.574,2.685,26.579l15.775,73.104
		l8.691-1.673"/>
	<polyline fill="none" stroke="#000000" stroke-miterlimit="10" points="974.03,501.56 974.03,504.356 988.563,504.9 
		1017.09,505.966 1017.09,502.969 	"/>
	<path fill="none" stroke="#000000" stroke-miterlimit="10" d="M988.561,505.966v3.021h-3.356v4.028h-2.181v11.075v27.857
		c0,0,8.978,7.384,17.956,0V513.35l-3.021,0.336l-0.336-4.027h-3.021l-0.385-5.035"/>
	<path fill="none" stroke="#000000" stroke-miterlimit="10" d="M895.945,554.799c0,0-5.725,21.985-16.129,25.007
		c0,0-17.789,3.691-22.152,3.355c0,0-5.37,5.37,0,9.733c0,0,42.961,4.028,47.996,2.35l9.844-6.964"/>
	<path fill="none" stroke="#000000" stroke-miterlimit="10" d="M926.133,549.252c0,0,2.172,16.792,4.778,18.806"/>
	<path fill="none" stroke="#000000" stroke-miterlimit="10" d="M891.367,554.799c0,0-5.174,11.245-11.551,13.259h-20.474
		c0,0-13.783,4.363-5.046,11.076l19.652,1.824"/>
	<path fill="none" stroke="#000000" stroke-miterlimit="10" d="M983.023,551.947l-49.842,16.11
		c-20.809,2.35-14.432,12.9-14.432,12.9h7.384l53.03-7.865c0,0,15.104-3.451,24.501,2.134l35.913,12.298
		c0,0,5.035,1.343,8.055-2.685c0,0,6.635-3.653-18.384-14.415c-1.878-0.81-3.935-1.657-6.186-2.547l-16.577-9.223l37.791,2.69
		c0,0,47.324,5.249,50.345,8.498c0,0,2.014-5.142-3.692-7.491l-89.949-10.405"/>
	<polyline fill="none" stroke="#000000" stroke-miterlimit="10" points="1029.249,570.425 1091.6,572.086 1094.621,569.844 	"/>
	<path fill="none" stroke="#000000" stroke-miterlimit="10" d="M924.68,580.958c0,0-2.751-4.604,6.232-5.731l45.231-12.203
		c0,0,20.474-4.698,26.515,0l42.546,23.876"/>
	<ellipse fill="none" stroke="#000000" stroke-miterlimit="10" cx="922.44" cy="588.28" rx="6.936" ry="7.085"/>
	<ellipse fill="none" stroke="#000000" stroke-miterlimit="10" cx="1037.84" cy="600.239" rx="6.936" ry="7.085"/>
	<ellipse fill="none" stroke="#000000" stroke-miterlimit="10" cx="1087.685" cy="582.311" rx="6.936" ry="7.085"/>
	<path fill="none" stroke="#000000" stroke-miterlimit="10" d="M1033.666,605.889c0,0-10.387,0.432-9.957-7.288
		c0,0-0.652-11.097,9.957-13.101"/>
	<path fill="none" stroke="#000000" stroke-miterlimit="10" d="M1044.272,597.595"/>
	<path fill="none" stroke="#000000" stroke-miterlimit="10" d="M1039.577,587.524c-4.522-1.548,6.059,2.6,4.695,10.07"/>
	<path fill="none" stroke="#000000" stroke-miterlimit="10" d="M1085.895,589.396c0,0-8.727,1.8-12.418-3.896
		c0,0-1.337-11.271,4.371-13.414"/>
	<path fill="none" stroke="#000000" stroke-miterlimit="10" d="M1091.6,572.086c0,0,3.706,7.17,3.021,10.225"/>
	<line fill="none" stroke="#000000" stroke-miterlimit="10" x1="976.606" y1="554.021" x2="927.699" y2="555.229"/>
	<path fill="none" stroke="#000000" stroke-miterlimit="10" d="M843.293,376.049c0,0-24.562,2.377-25.569-6.35
		c0,0-2.014-3.692,0-5.706c0,0,4.363,4.699,7.048,4.699c0,0,2.641,2.113-1.007,3.356l-6.042-2.35"/>
	<path fill="none" stroke="#000000" stroke-miterlimit="10" d="M817.724,363.993c0,0-3.692-4.027,0-5.37l7.384,7.384
		c0,0,2.35-2.685,0-5.034l-6.712-7.72c0,0-3.692,2.35-0.671,5.37"/>
	<path fill="none" stroke="#000000" stroke-miterlimit="10" d="M818.396,353.253c0,0-0.261-4.363,2.722-3.356l7.347,6.378
		c0,0,2.685,0.854,3.021-3.265l-2.834-2.142l-3.714-2.804c0,0-3.82-1.188-3.82,1.832"/>
	<path fill="none" stroke="#000000" stroke-miterlimit="10" d="M850.67,359.63c0,0-9.116-2.685-9.452-6.377c0,0-1.678-3.665,0-5.188
		c0,0-3.021-3.63-6.377,0.657c0,0-2.953,2.456-3.356,4.288"/>
	<path fill="none" stroke="#000000" stroke-miterlimit="10" d="M824.938,348.064c0,0,7.89-2.53,9.904,0.657"/>
	<path fill="none" stroke="#000000" stroke-miterlimit="10" d="M840.479,350.229c0,0,5.103-0.36,5.103,6.046"/>
	<path fill="none" stroke="#000000" stroke-miterlimit="10" d="M891.367,567.039c0,0,22.722,1.055,37.428-3.699"/>
</g>
<g id="Layer_3">
	<path fill="#FFFFFF" stroke="#000000" stroke-miterlimit="10" d="M500.526,227.482l-16.569,14h24.334c0,0,24.272,56.653,106.116,8
		c0,0,42.119-37,5.119-66c0,0-45.139-20-87.569,5C531.957,188.482,503.526,201.482,500.526,227.482z"/>
	<g>
		<path fill="none" stroke="#000000" stroke-width="0.25" stroke-miterlimit="10" d="M533.982,234.675
			c-0.134,0.213-0.08,0.468,0.26,0.773c0,0,2.259,1.332,2.717,1.445"/>
		<path fill="none" stroke="#000000" stroke-width="0.25" stroke-miterlimit="10" d="M538.707,233.624c0,0-4.142,0.126-4.725,1.051"
			/>
		<path fill="none" stroke="#000000" stroke-width="0.25" stroke-miterlimit="10" d="M533.982,234.675c0,0-0.756,3.837,1.029,7.648
			c0,0,8.859,7.784,17.484,8.167c0,0,5.229,1.157,6.734-4.03c0,0,5.465-17.571,7.297-20.064c0,0,3.745-6.158,5.703-6.75l3.547,0.425
			c0,0,0.755,0.091,0.835,1.397l-3.203,29.227l1.591,0.014l2.864-20.479c0,0,2.764-10.286,3.827-11.279c0,0,2.701-4.335,2.845-6.028
			c0,0-2.111,2.361-6.485,3.421c0,0-6.287,1.774-8.898,5.354c0,0-3.264,3.62-5.412,9.733c0,0-1.42,3.487-1.94,5.37
			c0,0-0.673,3.164-4.038,4.177c0,0-3.73,2.091-13.268-0.525C544.496,240.451,533.678,236.726,533.982,234.675z"/>
		<polyline fill="none" stroke="#000000" stroke-width="0.25" stroke-miterlimit="10" points="573.41,250.694 572.677,249.426 
			576.165,220.279 		"/>
		<path fill="none" stroke="#000000" stroke-width="0.25" stroke-miterlimit="10" d="M561.881,212.097
			c0.384,0.365,0.693,0.628,0.898,0.756c0,0,7.164,5.78,8.378,5.898"/>
		<path fill="none" stroke="#000000" stroke-width="0.25" stroke-miterlimit="10" d="M552.808,202.045c0,0,3.34,3.925,6.208,7.063"
			/>
		<path fill="none" stroke="#000000" stroke-width="0.25" stroke-miterlimit="10" d="M564.717,198.646l-10.154-1.403
			c0,0-1.7-0.086-1.755,4.803"/>
		<path fill="none" stroke="#000000" stroke-width="0.25" stroke-miterlimit="10" d="M561.88,212.097
			c5.253-1.315,10.217-1.196,10.217-1.196l-1.065,8.904c0,0-0.637-0.07-1.837,0.067c-2.241,0.256-6.445,1.235-12.128,4.741
			c0,0-2.49,1.413-2.76,2.029"/>
		<path fill="none" stroke="#000000" stroke-width="0.25" stroke-miterlimit="10" d="M563.173,208.356
			c-0.744-0.664-0.939-1.15-1.472-1.768c0,0-3.672-3.153-4.752-5.466"/>
		<path fill="none" stroke="#000000" stroke-width="0.25" stroke-miterlimit="10" d="M571.659,214.564c0,0-2.256-1.478-4.742-3.368"
			/>
		<path fill="none" stroke="#000000" stroke-width="0.25" stroke-miterlimit="10" d="M575.351,200.255
			c4.098-0.314,6.586-2.059,8.944,5.322c1.146,3.59,0.242,7.344,0.242,7.344"/>
		<path fill="none" stroke="#000000" stroke-width="0.25" stroke-miterlimit="10" d="M565.573,202.294
			c3.292,0.579,6.753,1.365,9.448,2.409c0,0,2.33-1.726,2.883-2.899c0,0-5.515-1.722-7.055-1.67
			c-0.786,0.027,2.665,0.09,4.502,0.121"/>
		<path fill="none" stroke="#000000" stroke-width="0.25" stroke-miterlimit="10" d="M552.808,202.045c0,0-0.551-1.305,2.08-1.107
			c0,0,4.25,0.313,9.246,1.115"/>
		<path fill="none" stroke="#000000" stroke-width="0.25" stroke-miterlimit="10" d="M554.152,197.38c0,0-0.031-3.435,12.16-1.269
			c0,0,9.492,0.521,14.677,4.129"/>
		<path fill="none" stroke="#000000" stroke-width="0.25" stroke-miterlimit="10" d="M559.016,209.108
			c-0.939,0.252-8.186,2.078-8.186,2.078c-1.447,1.243-0.899,4.552-0.899,4.552c0.551-1.645,11.95-3.642,11.95-3.642"/>
		<path fill="none" stroke="#000000" stroke-width="0.25" stroke-miterlimit="10" d="M559.016,209.108c0,0,10.752-1.908,11.68-2.269
			c0,0,3.378-0.633,1.061-3.194"/>
		<path fill="none" stroke="#000000" stroke-width="0.25" stroke-miterlimit="10" d="M570.316,199.616
			c-1.773-1.396-3.989-1.615-3.989-1.615c-1.077-0.366-1.61,0.645-1.61,0.645l-0.592,3.044c-0.031,2.296,1.276,2.04,1.276,2.04
			s2.785,1.016,3.869-0.7"/>
		<path fill="none" stroke="#000000" stroke-width="0.25" stroke-miterlimit="10" d="M565.826,200.181l0.166-1.383
			c0,0,2.7,0.391,3.64,1.21"/>
		<path fill="none" stroke="#000000" stroke-width="0.25" stroke-miterlimit="10" d="M568.426,202.846c0,0-2.581,0.092-2.853-0.552
			l0.164-1.368"/>
		<path fill="none" stroke="#000000" stroke-width="0.25" stroke-miterlimit="10" d="M570.669,199.7c0,0-0.552-0.243-0.993-0.061
			l-0.501,4.188l1.041,0.124L570.669,199.7z"/>
		<path fill="none" stroke="#000000" stroke-width="0.25" stroke-miterlimit="10" d="M565.808,215.224c0,0-6.336,6.307-6.589,6.939"
			/>
		<path fill="none" stroke="#000000" stroke-width="0.25" stroke-miterlimit="10" d="M568.766,212.562c0,0,0.3-0.997,1.496-1.631"/>
		<path fill="none" stroke="#000000" stroke-width="0.25" stroke-miterlimit="10" d="M549.93,215.738c0,0,8.221,6.298,9.289,6.425"
			/>
		<path fill="none" stroke="#000000" stroke-width="0.25" stroke-miterlimit="10" d="M553.403,214.024c0,0,5.696,3.853,9.038,4.611"
			/>
		<path fill="none" stroke="#000000" stroke-width="0.25" stroke-miterlimit="10" d="M566.833,224.937c0,0-7.147,2.351-8.145,3.587"
			/>
		<path fill="none" stroke="#000000" stroke-width="0.25" stroke-miterlimit="10" d="M548.509,222.171
			c-0.8,0.283-1.38,1.02-0.916,2.743c0,0,1.244,5.737,1.688,6.466"/>
		<path fill="none" stroke="#000000" stroke-width="0.25" stroke-miterlimit="10" d="M559.219,222.163c0,0-1.752,1.532-2.152,2.45
			c0,0-3.439-2.306-6.14-2.419c0,0-1.39-0.387-2.418-0.023"/>
		<path fill="none" stroke="#000000" stroke-width="0.25" stroke-miterlimit="10" d="M548.509,222.171c0,0-1.533-0.475-2.743,4.217
			c0,0-0.538,2,0.65,3.911"/>
		<path fill="none" stroke="#000000" stroke-width="0.25" stroke-miterlimit="10" d="M547.453,223.462c0,0,9.255,4.495,15.138,6.29
			c0.574,0.174,1.116,0.323,1.614,0.44"/>
		<path fill="none" stroke="#000000" stroke-width="0.25" stroke-miterlimit="10" d="M565.351,225.445c0,0-2.216,3.869-2.497,4.385"
			/>
		<path fill="none" stroke="#000000" stroke-width="0.25" stroke-miterlimit="10" d="M548.178,227.613
			c0,0,10.942,4.866,14.833,5.681"/>
		<path fill="none" stroke="#000000" stroke-width="0.25" stroke-miterlimit="10" d="M560.613,235.891c0,0,1.145-1.856,1.376-2.72"
			/>
		<path fill="none" stroke="#000000" stroke-width="0.25" stroke-miterlimit="10" d="M569.195,219.872"/>
		<path fill="none" stroke="#000000" stroke-width="0.25" stroke-miterlimit="10" d="M540.408,238.884
			c0.999-5.018,3.598-8.591,4.727-9.954c0.333-0.401,0.538-0.61,0.538-0.61"/>
		<path fill="none" stroke="#000000" stroke-width="0.25" stroke-miterlimit="10" d="M545.135,228.93c0,0-4.059,0.671-5.498,3.33
			c0,0-2.574,4.329-2.663,5.038"/>
		<path fill="none" stroke="#000000" stroke-width="0.25" stroke-miterlimit="10" d="M543.07,231.917c0,0,13.205,9.184,13.859,9.375
			"/>
		<path fill="none" stroke="#000000" stroke-width="0.25" stroke-miterlimit="10" d="M544.657,229.532
			c16.085,6.435,16.059,6.424,17.262,6.869"/>
		<path fill="none" stroke="#000000" stroke-width="0.25" stroke-miterlimit="10" d="M549.052,230.791c0,0,1.243-1.216,2.336-1.789"
			/>
		<path fill="none" stroke="#000000" stroke-width="0.25" stroke-miterlimit="10" d="M552.171,232.534c0,0,1.276-1.339,2.722-2.077"
			/>
		<path fill="none" stroke="#000000" stroke-width="0.25" stroke-miterlimit="10" d="M541.93,239.498c0,0,3.003-5.032,4.263-5.52"/>
		<path fill="none" stroke="#000000" stroke-width="0.25" stroke-miterlimit="10" d="M548.29,241.312c0,0-0.817-3.174-1.281-3.931"
			/>
		<path fill="none" stroke="#000000" stroke-width="0.25" stroke-miterlimit="10" d="M551.892,241.735c0,0-1.35-4.664-1.868-5.018"
			/>
		<path fill="none" stroke="#000000" stroke-width="0.25" stroke-miterlimit="10" d="M542.226,233.503c0,0,2.712-0.29,3.104-0.02"/>
		<path fill="none" stroke="#000000" stroke-width="0.25" stroke-miterlimit="10" d="M540.606,237.988c0,0,1.28,0.723,1.803,0.732"
			/>
		<path fill="none" stroke="#000000" stroke-width="0.25" stroke-miterlimit="10" d="M544.959,239.86c0,0,2.291,0.396,2.965,0.354"
			/>
		<path fill="none" stroke="#000000" stroke-width="0.25" stroke-miterlimit="10" d="M551.582,240.707c0,0,3.138,0.07,3.962-0.415"
			/>
		<path fill="none" stroke="#000000" stroke-width="0.25" stroke-miterlimit="10" d="M569.195,219.872c0,0,0.502-0.864,1.74-1.533"
			/>
		<path fill="none" stroke="#000000" stroke-width="0.25" stroke-miterlimit="10" d="M540.702,246.373"/>
		<path fill="none" stroke="#000000" stroke-width="0.25" stroke-miterlimit="10" d="M544.496,240.451c0,0,3.386-4.377,4.173-4.664"
			/>
		<path fill="none" stroke="#000000" stroke-width="0.25" stroke-miterlimit="10" d="M545.392,240.687"/>
		
			<line fill="none" stroke="#000000" stroke-width="0.25" stroke-miterlimit="10" x1="565.737" y1="200.926" x2="569.432" y2="201.673"/>
		<path fill="none" stroke="#000000" stroke-width="0.25" stroke-miterlimit="10" d="M569.515,200.984l-4.078-0.889
			c0,0-0.455,0.468-0.09,0.752l0.39,0.078"/>
		
			<ellipse transform="matrix(0.9927 0.1205 -0.1205 0.9927 28.2303 -66.4232)" fill="none" stroke="#000000" stroke-width="0.25" stroke-miterlimit="10" cx="563.451" cy="200.259" rx="0.304" ry="0.359"/>
		
			<ellipse transform="matrix(0.9929 0.1191 -0.1191 0.9929 27.8104 -65.4187)" fill="none" stroke="#000000" stroke-width="0.25" stroke-miterlimit="10" cx="561.311" cy="200" rx="0.303" ry="0.359"/>
		<path fill="none" stroke="#000000" stroke-width="0.25" stroke-miterlimit="10" d="M582.902,214.255"/>
		
			<line fill="none" stroke="#000000" stroke-width="0.25" stroke-miterlimit="10" x1="572.632" y1="218.711" x2="572.23" y2="219.646"/>
	</g>
</g>
</svg>
