<svg width="1440" height="447" viewBox="0 0 1440 447" version="1.1" xmlns="http://www.w3.org/2000/svg" xmlns:xlink="http://www.w3.org/1999/xlink">
<g id="Canvas" fill="none">
<g id="stats_bg">
<g id="Rectangle 5">
<rect width="224.282" height="224.247" transform="translate(-72 -0.00012207)" fill="#F2F2F2"/>
<rect x="0.5" y="0.5" width="223.282" height="223.247" transform="translate(-72 -0.00012207)" stroke="#E5E5E5"/>
</g>
<g id="Rectangle 5.1">
<rect width="224.282" height="224.247" transform="translate(150.786 -0.00012207)" fill="#F2F2F2"/>
<rect x="0.5" y="0.5" width="223.282" height="223.247" transform="translate(150.786 -0.00012207)" stroke="#E5E5E5"/>
</g>
<g id="Rectangle 5.2">
<rect width="224.282" height="224.247" transform="translate(373.573 -0.00012207)" fill="#F2F2F2"/>
<rect x="0.5" y="0.5" width="223.282" height="223.247" transform="translate(373.573 -0.00012207)" stroke="#E5E5E5"/>
</g>
<g id="Rectangle 5.3">
<rect width="224.282" height="224.247" transform="translate(596.359 -0.00012207)" fill="#F2F2F2"/>
<rect x="0.5" y="0.5" width="223.282" height="223.247" transform="translate(596.359 -0.00012207)" stroke="#E5E5E5"/>
</g>
<g id="Rectangle 5.4">
<rect width="224.282" height="224.247" transform="translate(819.146 -0.00012207)" fill="#F2F2F2"/>
<rect x="0.5" y="0.5" width="223.282" height="223.247" transform="translate(819.146 -0.00012207)" stroke="#E5E5E5"/>
</g>
<g id="Rectangle 5.5">
<rect width="224.282" height="224.247" transform="translate(1041.93 -0.00012207)" fill="#F2F2F2"/>
<rect x="0.5" y="0.5" width="223.282" height="223.247" transform="translate(1041.93 -0.00012207)" stroke="#E5E5E5"/>
</g>
<g id="Rectangle 5.6">
<rect width="224.282" height="224.247" transform="translate(1264.72 -0.00012207)" fill="#F2F2F2"/>
<rect x="0.5" y="0.5" width="223.282" height="223.247" transform="translate(1264.72 -0.00012207)" stroke="#E5E5E5"/>
</g>
<g id="Rectangle 5.8">
<rect width="224.282" height="224.247" transform="translate(-72 222.752)" fill="#F2F2F2"/>
<rect x="0.5" y="0.5" width="223.282" height="223.247" transform="translate(-72 222.752)" stroke="#E5E5E5"/>
</g>
<g id="Rectangle 5.9">
<rect width="224.282" height="224.247" transform="translate(150.786 222.752)" fill="#F2F2F2"/>
<rect x="0.5" y="0.5" width="223.282" height="223.247" transform="translate(150.786 222.752)" stroke="#E5E5E5"/>
</g>
<g id="Rectangle 5.10">
<rect width="224.282" height="224.247" transform="translate(373.573 222.752)" fill="#F2F2F2"/>
<rect x="0.5" y="0.5" width="223.282" height="223.247" transform="translate(373.573 222.752)" stroke="#E5E5E5"/>
</g>
<g id="Rectangle 5.11">
<rect width="224.282" height="224.247" transform="translate(596.359 222.752)" fill="#F2F2F2"/>
<rect x="0.5" y="0.5" width="223.282" height="223.247" transform="translate(596.359 222.752)" stroke="#E5E5E5"/>
</g>
<g id="Rectangle 5.12">
<rect width="224.282" height="224.247" transform="translate(819.146 222.752)" fill="#F2F2F2"/>
<rect x="0.5" y="0.5" width="223.282" height="223.247" transform="translate(819.146 222.752)" stroke="#E5E5E5"/>
</g>
<g id="Rectangle 5.13">
<rect width="224.282" height="224.247" transform="translate(1041.93 222.752)" fill="#F2F2F2"/>
<rect x="0.5" y="0.5" width="223.282" height="223.247" transform="translate(1041.93 222.752)" stroke="#E5E5E5"/>
</g>
<g id="Rectangle 5.14">
<rect width="224.282" height="224.247" transform="translate(1264.72 222.752)" fill="#F2F2F2"/>
<rect x="0.5" y="0.5" width="223.282" height="223.247" transform="translate(1264.72 222.752)" stroke="#E5E5E5"/>
</g>
<g id="45&#194;&#176;">
<path d="M 6.968 9.256C 7.13267 9.256 7.27133 9.31233 7.384 9.425C 7.49667 9.529 7.553 9.66333 7.553 9.828C 7.553 9.99267 7.49667 10.127 7.384 10.231C 7.27133 10.335 7.13267 10.387 6.968 10.387L 6.279 10.387L 6.279 12.376C 6.279 12.5493 6.21833 12.6967 6.097 12.818C 5.97567 12.9393 5.82833 13 5.655 13C 5.48167 13 5.33433 12.9393 5.213 12.818C 5.10033 12.6967 5.044 12.5493 5.044 12.376L 5.044 10.387L 1.482 10.387C 1.326 10.387 1.183 10.3263 1.053 10.205C 0.931667 10.0837 0.871 9.94067 0.871 9.776C 0.871 9.62 0.918667 9.48133 1.014 9.36L 5.161 4.147C 5.22167 4.069 5.29533 4.00833 5.382 3.965C 5.47733 3.92167 5.57267 3.9 5.668 3.9C 5.84133 3.9 5.98433 3.96067 6.097 4.082C 6.21833 4.20333 6.279 4.35067 6.279 4.524L 6.279 9.256L 6.968 9.256ZM 2.509 9.256L 5.044 9.256L 5.044 6.006L 2.509 9.256ZM 11.8369 6.916C 12.4002 6.916 12.9116 7.046 13.3709 7.306C 13.8302 7.55733 14.1899 7.91267 14.4499 8.372C 14.7099 8.82267 14.8399 9.32967 14.8399 9.893C 14.8399 10.491 14.6839 11.0327 14.3719 11.518C 14.0686 12.0033 13.6482 12.389 13.1109 12.675C 12.5822 12.9523 12.0016 13.091 11.3689 13.091C 11.0136 13.091 10.6582 13.0347 10.3029 12.922C 9.94757 12.8093 9.64857 12.6533 9.40591 12.454C 9.31924 12.3847 9.24991 12.2937 9.19791 12.181C 9.14591 12.0683 9.11991 11.9557 9.11991 11.843C 9.11991 11.713 9.17191 11.596 9.27591 11.492C 9.38857 11.3793 9.53157 11.323 9.70491 11.323C 9.81757 11.323 9.96924 11.388 10.1599 11.518C 10.5499 11.804 10.9486 11.947 11.3559 11.947C 11.7719 11.947 12.1489 11.856 12.4869 11.674C 12.8336 11.492 13.1066 11.245 13.3059 10.933C 13.5052 10.621 13.6049 10.2787 13.6049 9.906C 13.6049 9.35133 13.4229 8.905 13.0589 8.567C 12.6949 8.229 12.2356 8.06 11.6809 8.06C 11.4469 8.06 11.2389 8.09033 11.0569 8.151C 10.8836 8.21167 10.6712 8.30267 10.4199 8.424C 10.3159 8.476 10.2119 8.52367 10.1079 8.567C 10.0126 8.60167 9.93024 8.619 9.86091 8.619C 9.60957 8.619 9.42324 8.54533 9.30191 8.398C 9.18057 8.25067 9.11991 8.08167 9.11991 7.891L 9.13291 7.761L 9.60091 4.394C 9.62691 4.25533 9.69624 4.13833 9.80891 4.043C 9.93024 3.94767 10.0732 3.9 10.2379 3.9L 14.0599 3.9C 14.2246 3.9 14.3589 3.95633 14.4629 4.069C 14.5756 4.18167 14.6319 4.32033 14.6319 4.485C 14.6319 4.64967 14.5756 4.78833 14.4629 4.901C 14.3589 5.005 14.2246 5.057 14.0599 5.057L 10.6669 5.057L 10.3289 7.28C 10.5196 7.176 10.7492 7.08933 11.0179 7.02C 11.2952 6.95067 11.5682 6.916 11.8369 6.916ZM 18.1469 7.8C 17.7655 7.8 17.4189 7.709 17.1069 7.527C 16.8035 7.345 16.5609 7.10233 16.3789 6.799C 16.2055 6.487 16.1189 6.15333 16.1189 5.798C 16.1189 5.434 16.2055 5.10033 16.3789 4.797C 16.5609 4.485 16.8035 4.238 17.1069 4.056C 17.4189 3.874 17.7655 3.783 18.1469 3.783C 18.5282 3.783 18.8705 3.874 19.1739 4.056C 19.4859 4.238 19.7285 4.485 19.9019 4.797C 20.0752 5.10033 20.1619 5.434 20.1619 5.798C 20.1619 6.15333 20.0752 6.487 19.9019 6.799C 19.7285 7.10233 19.4859 7.345 19.1739 7.527C 18.8705 7.709 18.5282 7.8 18.1469 7.8ZM 18.1469 6.929C 18.4415 6.929 18.6885 6.81633 18.8879 6.591C 19.0959 6.36567 19.1999 6.10133 19.1999 5.798C 19.1999 5.49467 19.0959 5.23033 18.8879 5.005C 18.6885 4.771 18.4415 4.654 18.1469 4.654C 17.8435 4.654 17.5922 4.76667 17.3929 4.992C 17.1935 5.20867 17.0939 5.47733 17.0939 5.798C 17.0939 6.10133 17.1935 6.36567 17.3929 6.591C 17.5922 6.81633 17.8435 6.929 18.1469 6.929Z" transform="translate(76.0001 206)" fill="#D1D1D1"/>
</g>
<g id="80&#194;&#176;">
<path d="M 5.33 8.294C 5.746 8.528 6.07533 8.83133 6.318 9.204C 6.56933 9.57667 6.695 9.97533 6.695 10.4C 6.695 10.8767 6.565 11.3187 6.305 11.726C 6.045 12.1247 5.68967 12.4453 5.239 12.688C 4.78833 12.922 4.29433 13.039 3.757 13.039C 3.21967 13.039 2.72567 12.922 2.275 12.688C 1.82433 12.4453 1.469 12.1247 1.209 11.726C 0.949 11.3187 0.819 10.8767 0.819 10.4C 0.819 9.932 0.940333 9.52467 1.183 9.178C 1.43433 8.82267 1.755 8.53233 2.145 8.307C 1.82433 8.125 1.56 7.878 1.352 7.566C 1.144 7.24533 1.04 6.87267 1.04 6.448C 1.04 5.98 1.16133 5.551 1.404 5.161C 1.64667 4.771 1.97167 4.46333 2.379 4.238C 2.795 4.01267 3.25433 3.9 3.757 3.9C 4.251 3.9 4.706 4.01267 5.122 4.238C 5.538 4.46333 5.863 4.771 6.097 5.161C 6.33967 5.551 6.461 5.98 6.461 6.448C 6.461 6.89 6.35267 7.267 6.136 7.579C 5.91933 7.88233 5.65067 8.12067 5.33 8.294ZM 3.757 5.044C 3.32367 5.044 2.96833 5.17833 2.691 5.447C 2.41367 5.71567 2.275 6.058 2.275 6.474C 2.275 6.88133 2.418 7.22367 2.704 7.501C 2.99 7.76967 3.341 7.904 3.757 7.904C 4.16433 7.904 4.511 7.76967 4.797 7.501C 5.083 7.22367 5.226 6.88133 5.226 6.474C 5.226 6.058 5.08733 5.71567 4.81 5.447C 4.53267 5.17833 4.18167 5.044 3.757 5.044ZM 3.757 11.895C 4.24233 11.895 4.64533 11.752 4.966 11.466C 5.29533 11.18 5.46 10.8203 5.46 10.387C 5.46 9.95367 5.291 9.58967 4.953 9.295C 4.62367 9.00033 4.225 8.853 3.757 8.853C 3.289 8.853 2.89033 9.00033 2.561 9.295C 2.23167 9.58967 2.067 9.95367 2.067 10.387C 2.067 10.8203 2.22733 11.18 2.548 11.466C 2.86867 11.752 3.27167 11.895 3.757 11.895ZM 11.4546 13.13C 10.744 13.13 10.1373 12.9307 9.63463 12.532C 9.13196 12.1333 8.75062 11.583 8.49063 10.881C 8.23929 10.179 8.11363 9.36867 8.11363 8.45C 8.11363 7.53133 8.23929 6.721 8.49063 6.019C 8.75062 5.317 9.13196 4.76667 9.63463 4.368C 10.1373 3.96933 10.744 3.77 11.4546 3.77C 12.1653 3.77 12.772 3.96933 13.2746 4.368C 13.7773 4.76667 14.1543 5.317 14.4056 6.019C 14.6656 6.721 14.7956 7.53133 14.7956 8.45C 14.7956 9.36867 14.6656 10.179 14.4056 10.881C 14.1543 11.583 13.7773 12.1333 13.2746 12.532C 12.772 12.9307 12.1653 13.13 11.4546 13.13ZM 11.4546 11.882C 12.0873 11.882 12.577 11.583 12.9236 10.985C 13.279 10.387 13.4566 9.542 13.4566 8.45C 13.4566 7.358 13.279 6.513 12.9236 5.915C 12.577 5.317 12.0873 5.018 11.4546 5.018C 10.822 5.018 10.328 5.317 9.97262 5.915C 9.62596 6.513 9.45263 7.358 9.45263 8.45C 9.45263 9.542 9.62596 10.387 9.97262 10.985C 10.328 11.583 10.822 11.882 11.4546 11.882ZM 17.7914 7.8C 17.4101 7.8 17.0634 7.709 16.7514 7.527C 16.4481 7.345 16.2054 7.10233 16.0234 6.799C 15.8501 6.487 15.7634 6.15333 15.7634 5.798C 15.7634 5.434 15.8501 5.10033 16.0234 4.797C 16.2054 4.485 16.4481 4.238 16.7514 4.056C 17.0634 3.874 17.4101 3.783 17.7914 3.783C 18.1727 3.783 18.5151 3.874 18.8184 4.056C 19.1304 4.238 19.3731 4.485 19.5464 4.797C 19.7197 5.10033 19.8064 5.434 19.8064 5.798C 19.8064 6.15333 19.7197 6.487 19.5464 6.799C 19.3731 7.10233 19.1304 7.345 18.8184 7.527C 18.5151 7.709 18.1727 7.8 17.7914 7.8ZM 17.7914 6.929C 18.0861 6.929 18.3331 6.81633 18.5324 6.591C 18.7404 6.36567 18.8444 6.10133 18.8444 5.798C 18.8444 5.49467 18.7404 5.23033 18.5324 5.005C 18.3331 4.771 18.0861 4.654 17.7914 4.654C 17.4881 4.654 17.2367 4.76667 17.0374 4.992C 16.8381 5.20867 16.7384 5.47733 16.7384 5.798C 16.7384 6.10133 16.8381 6.36567 17.0374 6.591C 17.2367 6.81633 17.4881 6.929 17.7914 6.929Z" transform="translate(410 89.9999)" fill="#D1D1D1"/>
</g>
<g id="100&#194;&#176;">
<path d="M 2.899 3.9C 3.07233 3.90867 3.211 3.97367 3.315 4.095C 3.42767 4.20767 3.484 4.35067 3.484 4.524L 3.484 12.376C 3.484 12.5493 3.419 12.6967 3.289 12.818C 3.159 12.9393 2.99867 13 2.808 13C 2.61733 13 2.46133 12.9393 2.34 12.818C 2.21867 12.6967 2.158 12.5493 2.158 12.376L 2.158 5.616L 1.014 6.305C 0.918667 6.36567 0.810333 6.396 0.689 6.396C 0.515667 6.396 0.368333 6.331 0.247 6.201C 0.125667 6.06233 0.065 5.915 0.065 5.759C 0.065 5.655 0.0953333 5.55533 0.156 5.46C 0.216667 5.36467 0.294667 5.28667 0.39 5.226L 2.444 3.991C 2.56533 3.93033 2.717 3.9 2.899 3.9ZM 8.49662 13.13C 7.78595 13.13 7.17928 12.9307 6.67662 12.532C 6.17395 12.1333 5.79262 11.583 5.53262 10.881C 5.28128 10.179 5.15562 9.36867 5.15562 8.45C 5.15562 7.53133 5.28128 6.721 5.53262 6.019C 5.79262 5.317 6.17395 4.76667 6.67662 4.368C 7.17928 3.96933 7.78595 3.77 8.49662 3.77C 9.20728 3.77 9.81395 3.96933 10.3166 4.368C 10.8193 4.76667 11.1963 5.317 11.4476 6.019C 11.7076 6.721 11.8376 7.53133 11.8376 8.45C 11.8376 9.36867 11.7076 10.179 11.4476 10.881C 11.1963 11.583 10.8193 12.1333 10.3166 12.532C 9.81395 12.9307 9.20728 13.13 8.49662 13.13ZM 8.49662 11.882C 9.12928 11.882 9.61895 11.583 9.96562 10.985C 10.321 10.387 10.4986 9.542 10.4986 8.45C 10.4986 7.358 10.321 6.513 9.96562 5.915C 9.61895 5.317 9.12928 5.018 8.49662 5.018C 7.86395 5.018 7.36995 5.317 7.01462 5.915C 6.66795 6.513 6.49462 7.358 6.49462 8.45C 6.49462 9.542 6.66795 10.387 7.01462 10.985C 7.36995 11.583 7.86395 11.882 8.49662 11.882ZM 16.3804 13.13C 15.6697 13.13 15.0631 12.9307 14.5604 12.532C 14.0577 12.1333 13.6764 11.583 13.4164 10.881C 13.1651 10.179 13.0394 9.36867 13.0394 8.45C 13.0394 7.53133 13.1651 6.721 13.4164 6.019C 13.6764 5.317 14.0577 4.76667 14.5604 4.368C 15.0631 3.96933 15.6697 3.77 16.3804 3.77C 17.0911 3.77 17.6977 3.96933 18.2004 4.368C 18.7031 4.76667 19.0801 5.317 19.3314 6.019C 19.5914 6.721 19.7214 7.53133 19.7214 8.45C 19.7214 9.36867 19.5914 10.179 19.3314 10.881C 19.0801 11.583 18.7031 12.1333 18.2004 12.532C 17.6977 12.9307 17.0911 13.13 16.3804 13.13ZM 16.3804 11.882C 17.0131 11.882 17.5027 11.583 17.8494 10.985C 18.2047 10.387 18.3824 9.542 18.3824 8.45C 18.3824 7.358 18.2047 6.513 17.8494 5.915C 17.5027 5.317 17.0131 5.018 16.3804 5.018C 15.7477 5.018 15.2537 5.317 14.8984 5.915C 14.5517 6.513 14.3784 7.358 14.3784 8.45C 14.3784 9.542 14.5517 10.387 14.8984 10.985C 15.2537 11.583 15.7477 11.882 16.3804 11.882ZM 22.7172 7.8C 22.3359 7.8 21.9892 7.709 21.6772 7.527C 21.3739 7.345 21.1312 7.10233 20.9492 6.799C 20.7759 6.487 20.6892 6.15333 20.6892 5.798C 20.6892 5.434 20.7759 5.10033 20.9492 4.797C 21.1312 4.485 21.3739 4.238 21.6772 4.056C 21.9892 3.874 22.3359 3.783 22.7172 3.783C 23.0985 3.783 23.4409 3.874 23.7442 4.056C 24.0562 4.238 24.2989 4.485 24.4722 4.797C 24.6455 5.10033 24.7322 5.434 24.7322 5.798C 24.7322 6.15333 24.6455 6.487 24.4722 6.799C 24.2989 7.10233 24.0562 7.345 23.7442 7.527C 23.4409 7.709 23.0985 7.8 22.7172 7.8ZM 22.7172 6.929C 23.0119 6.929 23.2589 6.81633 23.4582 6.591C 23.6662 6.36567 23.7702 6.10133 23.7702 5.798C 23.7702 5.49467 23.6662 5.23033 23.4582 5.005C 23.2589 4.771 23.0119 4.654 22.7172 4.654C 22.4139 4.654 22.1625 4.76667 21.9632 4.992C 21.7639 5.20867 21.6642 5.47733 21.6642 5.798C 21.6642 6.10133 21.7639 6.36567 21.9632 6.591C 22.1625 6.81633 22.4139 6.929 22.7172 6.929Z" transform="translate(686 22.9999)" fill="#D1D1D1"/>
</g>
<g id="120&#194;&#176;">
<path d="M 2.899 3.9C 3.07233 3.90867 3.211 3.97367 3.315 4.095C 3.42767 4.20767 3.484 4.35067 3.484 4.524L 3.484 12.376C 3.484 12.5493 3.419 12.6967 3.289 12.818C 3.159 12.9393 2.99867 13 2.808 13C 2.61733 13 2.46133 12.9393 2.34 12.818C 2.21867 12.6967 2.158 12.5493 2.158 12.376L 2.158 5.616L 1.014 6.305C 0.918667 6.36567 0.810333 6.396 0.689 6.396C 0.515667 6.396 0.368333 6.331 0.247 6.201C 0.125667 6.06233 0.065 5.915 0.065 5.759C 0.065 5.655 0.0953333 5.55533 0.156 5.46C 0.216667 5.36467 0.294667 5.28667 0.39 5.226L 2.444 3.991C 2.56533 3.93033 2.717 3.9 2.899 3.9ZM 10.6416 11.856C 10.8063 11.856 10.945 11.9123 11.0576 12.025C 11.1703 12.1377 11.2266 12.2763 11.2266 12.441C 11.2266 12.6057 11.1703 12.74 11.0576 12.844C 10.945 12.948 10.8063 13 10.6416 13L 6.02662 13C 5.85328 13 5.71028 12.948 5.59762 12.844C 5.48495 12.7313 5.42862 12.584 5.42862 12.402C 5.42862 12.246 5.48928 12.0987 5.61062 11.96L 8.50962 8.814C 9.31562 7.956 9.71862 7.19767 9.71862 6.539C 9.71862 6.071 9.56262 5.68533 9.25062 5.382C 8.94728 5.07 8.55728 4.914 8.08062 4.914C 7.75995 4.914 7.45228 5.005 7.15762 5.187C 6.86295 5.369 6.62462 5.629 6.44262 5.967C 6.30395 6.149 6.13928 6.24 5.94862 6.24C 5.80128 6.24 5.66262 6.18367 5.53262 6.071C 5.40262 5.95833 5.33762 5.82833 5.33762 5.681C 5.33762 5.58567 5.36795 5.486 5.42862 5.382C 5.49795 5.278 5.59328 5.15667 5.71462 5.018C 6.00062 4.63667 6.36462 4.33333 6.80662 4.108C 7.24862 3.88267 7.69495 3.77 8.14562 3.77C 8.72628 3.77 9.22895 3.887 9.65362 4.121C 10.0783 4.355 10.4033 4.67567 10.6286 5.083C 10.8626 5.49033 10.9796 5.95833 10.9796 6.487C 10.9796 7.48367 10.4423 8.55833 9.36762 9.711L 7.40462 11.856L 10.6416 11.856ZM 15.6314 13.13C 14.9207 13.13 14.314 12.9307 13.8114 12.532C 13.3087 12.1333 12.9274 11.583 12.6674 10.881C 12.416 10.179 12.2904 9.36867 12.2904 8.45C 12.2904 7.53133 12.416 6.721 12.6674 6.019C 12.9274 5.317 13.3087 4.76667 13.8114 4.368C 14.314 3.96933 14.9207 3.77 15.6314 3.77C 16.342 3.77 16.9487 3.96933 17.4514 4.368C 17.954 4.76667 18.331 5.317 18.5824 6.019C 18.8424 6.721 18.9724 7.53133 18.9724 8.45C 18.9724 9.36867 18.8424 10.179 18.5824 10.881C 18.331 11.583 17.954 12.1333 17.4514 12.532C 16.9487 12.9307 16.342 13.13 15.6314 13.13ZM 15.6314 11.882C 16.264 11.882 16.7537 11.583 17.1004 10.985C 17.4557 10.387 17.6334 9.542 17.6334 8.45C 17.6334 7.358 17.4557 6.513 17.1004 5.915C 16.7537 5.317 16.264 5.018 15.6314 5.018C 14.9987 5.018 14.5047 5.317 14.1494 5.915C 13.8027 6.513 13.6294 7.358 13.6294 8.45C 13.6294 9.542 13.8027 10.387 14.1494 10.985C 14.5047 11.583 14.9987 11.882 15.6314 11.882ZM 21.9682 7.8C 21.5868 7.8 21.2402 7.709 20.9282 7.527C 20.6248 7.345 20.3822 7.10233 20.2002 6.799C 20.0268 6.487 19.9402 6.15333 19.9402 5.798C 19.9402 5.434 20.0268 5.10033 20.2002 4.797C 20.3822 4.485 20.6248 4.238 20.9282 4.056C 21.2402 3.874 21.5868 3.783 21.9682 3.783C 22.3495 3.783 22.6918 3.874 22.9952 4.056C 23.3072 4.238 23.5498 4.485 23.7232 4.797C 23.8965 5.10033 23.9832 5.434 23.9832 5.798C 23.9832 6.15333 23.8965 6.487 23.7232 6.799C 23.5498 7.10233 23.3072 7.345 22.9952 7.527C 22.6918 7.709 22.3495 7.8 21.9682 7.8ZM 21.9682 6.929C 22.2628 6.929 22.5098 6.81633 22.7092 6.591C 22.9172 6.36567 23.0212 6.10133 23.0212 5.798C 23.0212 5.49467 22.9172 5.23033 22.7092 5.005C 22.5098 4.771 22.2628 4.654 21.9682 4.654C 21.6648 4.654 21.4135 4.76667 21.2142 4.992C 21.0148 5.20867 20.9152 5.47733 20.9152 5.798C 20.9152 6.10133 21.0148 6.36567 21.2142 6.591C 21.4135 6.81633 21.6648 6.929 21.9682 6.929Z" transform="translate(874 56.9999)" fill="#D1D1D1"/>
</g>
<g id="140&#194;&#176;">
<path d="M 2.899 3.9C 3.07233 3.90867 3.211 3.97367 3.315 4.095C 3.42767 4.20767 3.484 4.35067 3.484 4.524L 3.484 12.376C 3.484 12.5493 3.419 12.6967 3.289 12.818C 3.159 12.9393 2.99867 13 2.808 13C 2.61733 13 2.46133 12.9393 2.34 12.818C 2.21867 12.6967 2.158 12.5493 2.158 12.376L 2.158 5.616L 1.014 6.305C 0.918667 6.36567 0.810333 6.396 0.689 6.396C 0.515667 6.396 0.368333 6.331 0.247 6.201C 0.125667 6.06233 0.065 5.915 0.065 5.759C 0.065 5.655 0.0953333 5.55533 0.156 5.46C 0.216667 5.36467 0.294667 5.28667 0.39 5.226L 2.444 3.991C 2.56533 3.93033 2.717 3.9 2.899 3.9ZM 11.5256 9.256C 11.6903 9.256 11.829 9.31233 11.9416 9.425C 12.0543 9.529 12.1106 9.66333 12.1106 9.828C 12.1106 9.99267 12.0543 10.127 11.9416 10.231C 11.829 10.335 11.6903 10.387 11.5256 10.387L 10.8366 10.387L 10.8366 12.376C 10.8366 12.5493 10.776 12.6967 10.6546 12.818C 10.5333 12.9393 10.386 13 10.2126 13C 10.0393 13 9.89195 12.9393 9.77062 12.818C 9.65795 12.6967 9.60162 12.5493 9.60162 12.376L 9.60162 10.387L 6.03962 10.387C 5.88362 10.387 5.74062 10.3263 5.61062 10.205C 5.48928 10.0837 5.42862 9.94067 5.42862 9.776C 5.42862 9.62 5.47628 9.48133 5.57162 9.36L 9.71862 4.147C 9.77928 4.069 9.85295 4.00833 9.93962 3.965C 10.035 3.92167 10.1303 3.9 10.2256 3.9C 10.399 3.9 10.542 3.96067 10.6546 4.082C 10.776 4.20333 10.8366 4.35067 10.8366 4.524L 10.8366 9.256L 11.5256 9.256ZM 7.06662 9.256L 9.60162 9.256L 9.60162 6.006L 7.06662 9.256ZM 16.8755 13.13C 16.1649 13.13 15.5582 12.9307 15.0555 12.532C 14.5529 12.1333 14.1715 11.583 13.9115 10.881C 13.6602 10.179 13.5345 9.36867 13.5345 8.45C 13.5345 7.53133 13.6602 6.721 13.9115 6.019C 14.1715 5.317 14.5529 4.76667 15.0555 4.368C 15.5582 3.96933 16.1649 3.77 16.8755 3.77C 17.5862 3.77 18.1929 3.96933 18.6955 4.368C 19.1982 4.76667 19.5752 5.317 19.8265 6.019C 20.0865 6.721 20.2165 7.53133 20.2165 8.45C 20.2165 9.36867 20.0865 10.179 19.8265 10.881C 19.5752 11.583 19.1982 12.1333 18.6955 12.532C 18.1929 12.9307 17.5862 13.13 16.8755 13.13ZM 16.8755 11.882C 17.5082 11.882 17.9979 11.583 18.3445 10.985C 18.6999 10.387 18.8775 9.542 18.8775 8.45C 18.8775 7.358 18.6999 6.513 18.3445 5.915C 17.9979 5.317 17.5082 5.018 16.8755 5.018C 16.2429 5.018 15.7489 5.317 15.3935 5.915C 15.0469 6.513 14.8735 7.358 14.8735 8.45C 14.8735 9.542 15.0469 10.387 15.3935 10.985C 15.7489 11.583 16.2429 11.882 16.8755 11.882ZM 23.2123 7.8C 22.831 7.8 22.4843 7.709 22.1723 7.527C 21.869 7.345 21.6263 7.10233 21.4443 6.799C 21.271 6.487 21.1843 6.15333 21.1843 5.798C 21.1843 5.434 21.271 5.10033 21.4443 4.797C 21.6263 4.485 21.869 4.238 22.1723 4.056C 22.4843 3.874 22.831 3.783 23.2123 3.783C 23.5936 3.783 23.936 3.874 24.2393 4.056C 24.5513 4.238 24.794 4.485 24.9673 4.797C 25.1406 5.10033 25.2273 5.434 25.2273 5.798C 25.2273 6.15333 25.1406 6.487 24.9673 6.799C 24.794 7.10233 24.5513 7.345 24.2393 7.527C 23.936 7.709 23.5936 7.8 23.2123 7.8ZM 23.2123 6.929C 23.507 6.929 23.754 6.81633 23.9533 6.591C 24.1613 6.36567 24.2653 6.10133 24.2653 5.798C 24.2653 5.49467 24.1613 5.23033 23.9533 5.005C 23.754 4.771 23.507 4.654 23.2123 4.654C 22.909 4.654 22.6576 4.76667 22.4583 4.992C 22.259 5.20867 22.1593 5.47733 22.1593 5.798C 22.1593 6.10133 22.259 6.36567 22.4583 6.591C 22.6576 6.81633 22.909 6.929 23.2123 6.929Z" transform="translate(1065 198)" fill="#D1D1D1"/>
</g>
<g id="150&#194;&#176;">
<path d="M 2.899 3.9C 3.07233 3.90867 3.211 3.97367 3.315 4.095C 3.42767 4.20767 3.484 4.35067 3.484 4.524L 3.484 12.376C 3.484 12.5493 3.419 12.6967 3.289 12.818C 3.159 12.9393 2.99867 13 2.808 13C 2.61733 13 2.46133 12.9393 2.34 12.818C 2.21867 12.6967 2.158 12.5493 2.158 12.376L 2.158 5.616L 1.014 6.305C 0.918667 6.36567 0.810333 6.396 0.689 6.396C 0.515667 6.396 0.368333 6.331 0.247 6.201C 0.125667 6.06233 0.065 5.915 0.065 5.759C 0.065 5.655 0.0953333 5.55533 0.156 5.46C 0.216667 5.36467 0.294667 5.28667 0.39 5.226L 2.444 3.991C 2.56533 3.93033 2.717 3.9 2.899 3.9ZM 8.01562 6.916C 8.57895 6.916 9.09028 7.046 9.54962 7.306C 10.009 7.55733 10.3686 7.91267 10.6286 8.372C 10.8886 8.82267 11.0186 9.32967 11.0186 9.893C 11.0186 10.491 10.8626 11.0327 10.5506 11.518C 10.2473 12.0033 9.82695 12.389 9.28962 12.675C 8.76095 12.9523 8.18028 13.091 7.54762 13.091C 7.19228 13.091 6.83695 13.0347 6.48162 12.922C 6.12628 12.8093 5.82728 12.6533 5.58462 12.454C 5.49795 12.3847 5.42862 12.2937 5.37662 12.181C 5.32462 12.0683 5.29862 11.9557 5.29862 11.843C 5.29862 11.713 5.35062 11.596 5.45462 11.492C 5.56728 11.3793 5.71028 11.323 5.88362 11.323C 5.99628 11.323 6.14795 11.388 6.33862 11.518C 6.72862 11.804 7.12728 11.947 7.53462 11.947C 7.95062 11.947 8.32762 11.856 8.66562 11.674C 9.01228 11.492 9.28528 11.245 9.48462 10.933C 9.68395 10.621 9.78362 10.2787 9.78362 9.906C 9.78362 9.35133 9.60162 8.905 9.23762 8.567C 8.87362 8.229 8.41428 8.06 7.85962 8.06C 7.62562 8.06 7.41762 8.09033 7.23562 8.151C 7.06228 8.21167 6.84995 8.30267 6.59862 8.424C 6.49462 8.476 6.39062 8.52367 6.28662 8.567C 6.19128 8.60167 6.10895 8.619 6.03962 8.619C 5.78828 8.619 5.60195 8.54533 5.48062 8.398C 5.35928 8.25067 5.29862 8.08167 5.29862 7.891L 5.31162 7.761L 5.77962 4.394C 5.80562 4.25533 5.87495 4.13833 5.98762 4.043C 6.10895 3.94767 6.25195 3.9 6.41662 3.9L 10.2386 3.9C 10.4033 3.9 10.5376 3.95633 10.6416 4.069C 10.7543 4.18167 10.8106 4.32033 10.8106 4.485C 10.8106 4.64967 10.7543 4.78833 10.6416 4.901C 10.5376 5.005 10.4033 5.057 10.2386 5.057L 6.84562 5.057L 6.50762 7.28C 6.69828 7.176 6.92795 7.08933 7.19662 7.02C 7.47395 6.95067 7.74695 6.916 8.01562 6.916ZM 15.8726 13.13C 15.1619 13.13 14.5553 12.9307 14.0526 12.532C 13.5499 12.1333 13.1686 11.583 12.9086 10.881C 12.6573 10.179 12.5316 9.36867 12.5316 8.45C 12.5316 7.53133 12.6573 6.721 12.9086 6.019C 13.1686 5.317 13.5499 4.76667 14.0526 4.368C 14.5553 3.96933 15.1619 3.77 15.8726 3.77C 16.5833 3.77 17.1899 3.96933 17.6926 4.368C 18.1953 4.76667 18.5723 5.317 18.8236 6.019C 19.0836 6.721 19.2136 7.53133 19.2136 8.45C 19.2136 9.36867 19.0836 10.179 18.8236 10.881C 18.5723 11.583 18.1953 12.1333 17.6926 12.532C 17.1899 12.9307 16.5833 13.13 15.8726 13.13ZM 15.8726 11.882C 16.5053 11.882 16.9949 11.583 17.3416 10.985C 17.6969 10.387 17.8746 9.542 17.8746 8.45C 17.8746 7.358 17.6969 6.513 17.3416 5.915C 16.9949 5.317 16.5053 5.018 15.8726 5.018C 15.2399 5.018 14.7459 5.317 14.3906 5.915C 14.0439 6.513 13.8706 7.358 13.8706 8.45C 13.8706 9.542 14.0439 10.387 14.3906 10.985C 14.7459 11.583 15.2399 11.882 15.8726 11.882ZM 22.2094 7.8C 21.828 7.8 21.4814 7.709 21.1694 7.527C 20.866 7.345 20.6234 7.10233 20.4414 6.799C 20.268 6.487 20.1814 6.15333 20.1814 5.798C 20.1814 5.434 20.268 5.10033 20.4414 4.797C 20.6234 4.485 20.866 4.238 21.1694 4.056C 21.4814 3.874 21.828 3.783 22.2094 3.783C 22.5907 3.783 22.933 3.874 23.2364 4.056C 23.5484 4.238 23.791 4.485 23.9644 4.797C 24.1377 5.10033 24.2244 5.434 24.2244 5.798C 24.2244 6.15333 24.1377 6.487 23.9644 6.799C 23.791 7.10233 23.5484 7.345 23.2364 7.527C 22.933 7.709 22.5907 7.8 22.2094 7.8ZM 22.2094 6.929C 22.504 6.929 22.751 6.81633 22.9504 6.591C 23.1584 6.36567 23.2624 6.10133 23.2624 5.798C 23.2624 5.49467 23.1584 5.23033 22.9504 5.005C 22.751 4.771 22.504 4.654 22.2094 4.654C 21.906 4.654 21.6547 4.76667 21.4554 4.992C 21.256 5.20867 21.1564 5.47733 21.1564 5.798C 21.1564 6.10133 21.256 6.36567 21.4554 6.591C 21.6547 6.81633 21.906 6.929 22.2094 6.929Z" transform="translate(1207 318)" fill="#F2F2F2"/>
</g>
</g>
</g>
</svg>

